…
Oops! Nope, the analyst did *not* succeed in extracting all the data from Rwanda and Afghanistan. This function actually only extracted HALF of the data from each country? Why?? This was a little confusing at first, but after checking out the data, we can see that this filters the data in a pattern: first Rwanda, then Afghanistan, repeated over and over. That's because **country == c("Rwanda", "Afghanistan"))** tells filter function will go through that pattern as many times as possible until the end of the data. Here's the proper way to do it:

``` r
# using the "or" argument
new_gap2 = filter(gapminder, country == "Rwanda" | country == "Afghanistan")

new_gap2
```

    ## # A tibble: 24 x 6
    ##        country continent  year lifeExp      pop gdpPercap
    ##         <fctr>    <fctr> <int>   <dbl>    <int>     <dbl>
    ##  1 Afghanistan      Asia  1952  28.801  8425333  779.4453
    ##  2 Afghanistan      Asia  1957  30.332  9240934  820.8530
    ##  3 Afghanistan      Asia  1962  31.997 10267083  853.1007
    ##  4 Afghanistan      Asia  1967  34.020 11537966  836.1971
    ##  5 Afghanistan      Asia  1972  36.088 13079460  739.9811
    ##  6 Afghanistan      Asia  1977  38.438 14880372  786.1134
    ##  7 Afghanistan      Asia  1982  39.854 12881816  978.0114
    ##  8 Afghanistan      Asia  1987  40.822 13867957  852.3959
    ##  9 Afghanistan      Asia  1992  41.674 16317921  649.3414
    ## 10 Afghanistan      Asia  1997  41.763 22227415  635.3414
    ## # ... with 14 more rows
…
